[
    {
        "model": "A",
        "nom": "Classique 1",
        "width": 0.75,
        "height": 1.73,
        "depth": 0.30,
        "lower_plinth_height": 0.1,
        "middle_boards_height": 0.03,
        "upper_plinth_height": 0.04,
        "central_dividers_width": 0.05,
        "side_dividers_width": 0.1,
        "backboard_depth": 0.1,
        "wheel_diameter": 0,
        "furniture_material": "#4D4D4D",
        "wheel_material": "gray"
    },
    {
        "model": "B",
        "nom": "Classique 2",
        "width": 0.75,
        "height": 1.73,
        "depth": 0.44,
        "lower_plinth_height": 0.08,
        "middle_boards_height": 0.03,
        "upper_plinth_height": 0.04,
        "central_dividers_width": 0.005,
        "side_dividers_width": 0.03,
        "backboard_depth": 0.05,
        "wheel_diameter": 0.1,
        "furniture_material": "#4D4D4D",
        "wheel_material": "gray"
    },
    {
        "model": "C",
        "nom": "Classique 3",
        "width": 0.75,
        "height": 1.5,
        "depth": 0.30,
        "lower_plinth_height": 0.08,
        "middle_boards_height": 0.03,
        "upper_plinth_height": 0.04,
        "central_dividers_width": 0.005,
        "side_dividers_width": 0.03,
        "backboard_depth": 0.1,
        "wheel_diameter": 0,
        "furniture_material": "#4D4D4D",
        "wheel_material": "gray"
    },
    {
        "model": "D",
        "nom": "Revues",
        "width": 0.91,
        "height": 1.13,
        "depth": 0.30,
        "lower_plinth_height": 0.08,
        "middle_boards_height": 0.03,
        "upper_plinth_height": 0.04,
        "central_dividers_width": 0.005,
        "side_dividers_width": 0.03,
        "backboard_depth": 0.1,
        "wheel_diameter": 0,
        "furniture_material": "#4D4D4D",
        "wheel_material": "gray"
    },
    {
        "model": "E",
        "nom": "Classique 4",
        "width": 0.9,
        "height": 1.5,
        "depth": 0.33,
        "lower_plinth_height": 0.08,
        "middle_boards_height": 0.03,
        "upper_plinth_height": 0.04,
        "central_dividers_width": 0.005,
        "side_dividers_width": 0.03,
        "backboard_depth": 0.1,
        "wheel_diameter": 0,
        "furniture_material": "#4D4D4D",
        "wheel_material": "gray"
    },
    {
        "model": "F",
        "nom": "Classique 5",
        "width": 0.9,
        "height": 1.5,
        "depth": 0.33,
        "lower_plinth_height": 0.08,
        "middle_boards_height": 0.03,
        "upper_plinth_height": 0.04,
        "central_dividers_width": 0.005,
        "side_dividers_width": 0.03,
        "backboard_depth": 0.1,
        "wheel_diameter": 0.3,
        "furniture_material": "#4D4D4D",
        "wheel_material": "gray"
    },
    {
        "model": "G",
        "nom": "Revues 2",
        "width": 0.9,
        "height": 1.5,
        "depth": 0.33,
        "lower_plinth_height": 0.08,
        "middle_boards_height": 0.03,
        "upper_plinth_height": 0.04,
        "central_dividers_width": 0.005,
        "side_dividers_width": 0.03,
        "backboard_depth": 0.1,
        "wheel_diameter": 0.1,
        "furniture_material": "#4D4D4D",
        "wheel_material": "gray"
    },
    {
        "model": "H",
        "nom": "Classique 6",
        "width": 0.75,
        "height": 1.5,
        "depth": 0.48,
        "lower_plinth_height": 0.08,
        "middle_boards_height": 0.03,
        "upper_plinth_height": 0.04,
        "central_dividers_width": 0.005,
        "side_dividers_width": 0.03,
        "backboard_depth": 0.1,
        "wheel_diameter": 0,
        "furniture_material": "#4D4D4D",
        "wheel_material": "gray"
    },
    {
        "model": "I",
        "nom": "Revues 3",
        "width": 0.9,
        "height": 1.2,
        "depth": 0.68,
        "lower_plinth_height": 0.08,
        "middle_boards_height": 0.03,
        "upper_plinth_height": 0.04,
        "central_dividers_width": 0.005,
        "side_dividers_width": 0.03,
        "backboard_depth": 0.1,
        "wheel_diameter": 0,
        "furniture_material": "#4D4D4D",
        "wheel_material": "gray"
    },
    {
        "model": "J",
        "nom": "Revues 4",
        "width": 0.9,
        "height": 1.5,
        "depth": 0.9,
        "lower_plinth_height": 0.08,
        "middle_boards_height": 0.03,
        "upper_plinth_height": 0.04,
        "central_dividers_width": 0.005,
        "side_dividers_width": 0.03,
        "backboard_depth": 0.1,
        "wheel_diameter": 0,
        "furniture_material": "#4D4D4D",
        "wheel_material": "gray"
    }
]