[
    {
        "model": "A",
        "width": 1.5,
        "height": 1,
        "depth": 1,
        "number_step": 17,
        "height_step": 0.1,
        "depth_step": 0.6,
        "width_stair_ground": 4,
        "furniture_material": "brown"
    }
]