[
    {
        "model": "A",
        "font": "/fonts/bangers-v20-latin-regular.woff",
        "font_size": 1,
        "font_color": "#D3D3D3",
        "font_weight": "normal",
        "text_align": "center",
        "letter_spacing": 0,
        "line_height": 1,
        "text_decoration": "none",
        "outline_width": 0.1,
        "outline_color": "#2E2E2E"
    }
]