[
    {
        "model": "A",
        "thickness": 0.4,
        "height": 4,
        "furniture_material": "#D2EBDB"
    },
    {
        "model": "B",
        "thickness": 0.4,
        "height": 4,
        "furniture_material": "red"
    }
]