[
    { "name": "floor", "type": "select", "label": "Étage", "select-type": "floor"},
    { "name": "id-bay", "type": "select", "label": "Identifiant de la travée", "select-type": "id_bay_osm"},
    { "name": "section", "type": "select", "label": "Section", "select-type": "call_number+name"},
    {"name": "start", "type": "label", "label": "Début"},
    { "name": "column1", "type": "number", "label": "Numéro de la colonne", "defaultValue": 1},
    { "name": "line1", "type": "number", "label": "Numéro de la ligne", "defaultValue": 1},
    { "name": "slider-line1", "type": "slider-1", "label": "Position sur la ligne", "defaultValue": [0], "step": 1},
    {"name": "end", "type": "label", "label": "Fin"},
    { "name": "column2", "type": "number", "label": "Numéro de la colonne", "defaultValue": 1},
    { "name": "line2", "type": "number", "label": "Numéro de la ligne", "defaultValue": 1},
    { "name": "slider-line2", "type": "slider-1", "label": "Position sur la ligne", "defaultValue":[100], "step": 1},
    {"name" : "validation", "type": "button", "label": "Valider"}
]
