[
    { "name": "model", "type": "text", "label": "Modèle"},
    { "name": "name", "type": "text", "label": "Nom"},
    { "name": "width", "type": "number", "label": "Largeur"},
    { "name": "height", "type": "number", "label": "Hauteur"},
    { "name": "depth", "type": "number", "label": "Profondeur"},
    { "name": "lower_plinth_height", "type": "number", "label": "Hauteur de la plinthe inférieure"},
    { "name": "upper_plinth_height", "type": "number", "label": "Hauteur de la plinthe supérieure"},
    { "name": "central_dividers_width", "type": "number", "label": "Largeur des diviseurs centraux"},
    { "name": "side_dividers_width", "type": "number", "label": "Largeur des diviseurs latéraux"},
    { "name": "backboard", "type": "checkbox", "label": "Présence du panneau arrière"  },
    { "name": "backboard_depth", "type": "number", "label": "Profondeur du panneau arrière", "condition": "backboard"  },
    { "name": "wheels", "type": "checkbox", "label": "Présence des roues"  },
    { "name": "wheel_diameter", "type": "number", "label": "Diamètre des roues", "condition": "wheels" },
    { "name": "furniture_material", "type": "color-file", "label": "Matériau du meuble", "condition": "wheels"},
    { "name": "wheel_material", "type": "color-file", "label": "Matériau des roues", "condition": "wheels"}
]
