[
    { "name": "model", "type": "text", "label": "Modèle"},
    { "name": "name", "type": "text", "label": "Nom"},
    { "name": "width", "type": "number", "label": "Largeur"},
    { "name": "height", "type": "number", "label": "Hauteur"},
    { "name": "depth", "type": "number", "label": "Profondeur"},
    { "name": "furniture_material", "type": "color-file", "label": "Matériau du meuble"}
]